%YAML 1.1
%TAG !u! tag:unity3d.com,2011:
--- !u!114 &11400000
MonoBehaviour:
  m_ObjectHideFlags: 0
  m_CorrespondingSourceObject: {fileID: 0}
  m_PrefabInstance: {fileID: 0}
  m_PrefabAsset: {fileID: 0}
  m_GameObject: {fileID: 0}
  m_Enabled: 1
  m_EditorHideFlags: 0
  m_Script: {fileID: 11500000, guid: d7fd9488000d3734a9e00ee676215985, type: 3}
  m_Name: Scene Settings Profile
  m_EditorClassIdentifier: 
  components:
  - {fileID: 114880743976380986}
  - {fileID: 114720290775810388}
  - {fileID: 114397221909751098}
  - {fileID: 114436463026671754}
  - {fileID: 114813549433757132}
  - {fileID: 114015457163295026}
--- !u!114 &114015457163295026
MonoBehaviour:
  m_ObjectHideFlags: 3
  m_CorrespondingSourceObject: {fileID: 0}
  m_PrefabInstance: {fileID: 0}
  m_PrefabAsset: {fileID: 0}
  m_GameObject: {fileID: 0}
  m_Enabled: 1
  m_EditorHideFlags: 0
  m_Script: {fileID: 11500000, guid: 29b00527f85bb3346a4d2cb710971587, type: 3}
  m_Name: VolumetricFog
  m_EditorClassIdentifier: 
  active: 1
  colorMode:
    m_OverrideState: 1
    m_Value: 1
  color:
    m_OverrideState: 1
    m_Value: {r: 0.5, g: 0.5, b: 0.5, a: 1}
    hdr: 0
    showAlpha: 1
    showEyeDropper: 1
  density:
    m_OverrideState: 1
    m_Value: 1
    min: 0
    max: 1
  mipFogMaxMip:
    m_OverrideState: 1
    m_Value: 0.5
    min: 0
    max: 1
  mipFogNear:
    m_OverrideState: 1
    m_Value: 0
    min: 0
  mipFogFar:
    m_OverrideState: 1
    m_Value: 1000
    min: 0
  albedo:
    m_OverrideState: 1
    m_Value: {r: 1, g: 1, b: 1, a: 1}
    hdr: 0
    showAlpha: 1
    showEyeDropper: 1
  meanFreePath:
    m_OverrideState: 1
    m_Value: 20
    min: 1
  baseHeight:
    m_OverrideState: 0
    m_Value: 0
  meanHeight:
    m_OverrideState: 0
    m_Value: 10
    min: 1
  anisotropy:
    m_OverrideState: 1
    m_Value: 0
    min: -1
    max: 1
  globalLightProbeDimmer:
    m_OverrideState: 1
    m_Value: 1
    min: 0
    max: 1
  enableDistantFog:
    m_OverrideState: 0
    m_Value: 0
--- !u!114 &114397221909751098
MonoBehaviour:
  m_ObjectHideFlags: 0
  m_CorrespondingSourceObject: {fileID: 0}
  m_PrefabInstance: {fileID: 0}
  m_PrefabAsset: {fileID: 0}
  m_GameObject: {fileID: 0}
  m_Enabled: 1
  m_EditorHideFlags: 0
  m_Script: {fileID: 11500000, guid: 3df29e7cc05fbec4aa43e06ea875565d, type: 3}
  m_Name: 
  m_EditorClassIdentifier: 
  active: 0
  rotation:
    m_OverrideState: 1
    m_Value: 0
    min: 0
    max: 360
  skyIntensityMode:
    m_OverrideState: 0
    m_Value: 0
  exposure:
    m_OverrideState: 1
    m_Value: 0
  multiplier:
    m_OverrideState: 1
    m_Value: 1
    min: 0
  upperHemisphereLuxValue:
    m_OverrideState: 0
    m_Value: 1
    min: 0
  desiredLuxValue:
    m_OverrideState: 0
    m_Value: 20000
  updateMode:
    m_OverrideState: 1
    m_Value: 0
  updatePeriod:
    m_OverrideState: 1
    m_Value: 0
    min: 0
  includeSunInBaking:
    m_OverrideState: 0
    m_Value: 0
  sunSize:
    m_OverrideState: 1
    m_Value: 0.04
    min: 0
    max: 1
  sunSizeConvergence:
    m_OverrideState: 1
    m_Value: 5
    min: 1
    max: 10
  atmosphereThickness:
    m_OverrideState: 1
    m_Value: 1
    min: 0
    max: 5
  skyTint:
    m_OverrideState: 1
    m_Value: {r: 0.5, g: 0.5, b: 0.5, a: 1}
    hdr: 0
    showAlpha: 1
    showEyeDropper: 1
  groundColor:
    m_OverrideState: 1
    m_Value: {r: 0.369, g: 0.349, b: 0.341, a: 1}
    hdr: 0
    showAlpha: 1
    showEyeDropper: 1
  enableSunDisk:
    m_OverrideState: 1
    m_Value: 1
--- !u!114 &114436463026671754
MonoBehaviour:
  m_ObjectHideFlags: 0
  m_CorrespondingSourceObject: {fileID: 0}
  m_PrefabInstance: {fileID: 0}
  m_PrefabAsset: {fileID: 0}
  m_GameObject: {fileID: 0}
  m_Enabled: 1
  m_EditorHideFlags: 0
  m_Script: {fileID: 11500000, guid: 2150ee00179b2f4418ea8b21a7e98eea, type: 3}
  m_Name: 
  m_EditorClassIdentifier: 
  active: 0
  colorMode:
    m_OverrideState: 1
    m_Value: 1
  color:
    m_OverrideState: 1
    m_Value: {r: 0.5, g: 0.5, b: 0.5, a: 1}
    hdr: 0
    showAlpha: 1
    showEyeDropper: 1
  density:
    m_OverrideState: 1
    m_Value: 0.081
    min: 0
    max: 1
  mipFogMaxMip:
    m_OverrideState: 1
    m_Value: 0.5
    min: 0
    max: 1
  mipFogNear:
    m_OverrideState: 1
    m_Value: 0
    min: 0
  mipFogFar:
    m_OverrideState: 1
    m_Value: 1000
    min: 0
  fogDistance:
    m_OverrideState: 1
    m_Value: 200
    min: 0
  fogBaseHeight:
    m_OverrideState: 1
    m_Value: 0
  fogHeightAttenuation:
    m_OverrideState: 1
    m_Value: 0.2
    min: 0
    max: 1
--- !u!114 &114720290775810388
MonoBehaviour:
  m_ObjectHideFlags: 0
  m_CorrespondingSourceObject: {fileID: 0}
  m_PrefabInstance: {fileID: 0}
  m_PrefabAsset: {fileID: 0}
  m_GameObject: {fileID: 0}
  m_Enabled: 1
  m_EditorHideFlags: 0
  m_Script: {fileID: 11500000, guid: 0d7593b3a9277ac4696b20006c21dde2, type: 3}
  m_Name: 
  m_EditorClassIdentifier: 
  active: 1
  skyType:
    m_OverrideState: 1
    m_Value: 1
  fogType:
    m_OverrideState: 1
    m_Value: 3
--- !u!114 &114813549433757132
MonoBehaviour:
  m_ObjectHideFlags: 3
  m_CorrespondingSourceObject: {fileID: 0}
  m_PrefabInstance: {fileID: 0}
  m_PrefabAsset: {fileID: 0}
  m_GameObject: {fileID: 0}
  m_Enabled: 1
  m_EditorHideFlags: 0
  m_Script: {fileID: 11500000, guid: 4910d90e50201484ba448b791a192696, type: 3}
  m_Name: VolumetricLightingController
  m_EditorClassIdentifier: 
  active: 1
  depthRange:
    m_OverrideState: 1
    m_Value: {x: 0.5, y: 64}
    min: 0.01
    max: 10000
  depthDistributionUniformity:
    m_OverrideState: 1
    m_Value: 0.75
    min: 0
    max: 1
--- !u!114 &114880743976380986
MonoBehaviour:
  m_ObjectHideFlags: 0
  m_CorrespondingSourceObject: {fileID: 0}
  m_PrefabInstance: {fileID: 0}
  m_PrefabAsset: {fileID: 0}
  m_GameObject: {fileID: 0}
  m_Enabled: 1
  m_EditorHideFlags: 0
  m_Script: {fileID: 11500000, guid: 7ddcec8a8eb2d684d833ac8f5d26aebd, type: 3}
  m_Name: 
  m_EditorClassIdentifier: 
  active: 1
  maxShadowDistance:
    m_OverrideState: 1
    m_Value: 500
    min: 0
  cascadeShadowSplitCount:
    m_OverrideState: 1
    m_Value: 4
    min: 1
    max: 4
  cascadeShadowSplit0:
    m_OverrideState: 1
    m_Value: 0.05
    min: 0
    max: 1
  cascadeShadowSplit1:
    m_OverrideState: 1
    m_Value: 0.15
    min: 0
    max: 1
  cascadeShadowSplit2:
    m_OverrideState: 1
    m_Value: 0.3
    min: 0
    max: 1
  cascadeShadowBorder0:
    m_OverrideState: 1
    m_Value: 0
    min: 0
  cascadeShadowBorder1:
    m_OverrideState: 1
    m_Value: 0
    min: 0
  cascadeShadowBorder2:
    m_OverrideState: 1
    m_Value: 0
    min: 0
  cascadeShadowBorder3:
    m_OverrideState: 1
    m_Value: 0
    min: 0
